{
  "data": [
    {
      "email": "string@example.com",
      "first_name": "string",
      "last_name": "string",
      "company": "string",
      "phone": "string",
      "notes": "string",
      "tax_exempt_category": "string",
      "customer_group_id": 0,
      "addresses": [
        {
          "first_name": "string",
          "last_name": "string",
          "address1": "Addr1",
          "address2": "",
          "city": "string",
          "state_or_province": "string",
          "postal_code": "string",
          "country_code": "st",
          "phone": "string",
          "address_type": "residential",
          "customer_id": 0,
          "id": 0,
          "country": "string"
        }
      ],
      "store_credit_amounts": [
        {
          "amount": 43.15
        }
      ],
      "accepts_product_review_abandoned_cart_emails": true,
      "channel_ids": [
        1
      ]
    },
    {
      "email": "string@example.com",
      "first_name": "string",
      "last_name": "string",
      "company": "string",
      "phone": "string",
      "notes": "string",
      "tax_exempt_category": "string",
      "customer_group_id": 0,
      "addresses": [
        {
          "first_name": "string",
          "last_name": "string",
          "address1": "Addr1",
          "address2": "",
          "city": "string",
          "state_or_province": "string",
          "postal_code": "string",
          "country_code": "st",
          "phone": "string",
          "address_type": "residential",
          "customer_id": 0,
          "id": 0,
          "country": "string"
        }
      ],
      "store_credit_amounts": [
        {
          "amount": 43.15
        }
      ],
      "accepts_product_review_abandoned_cart_emails": true,
      "channel_ids": [
        1
      ]
    }
  ],
  "meta": {
    "pagination": {
      "total": 4,
      "count": 2,
      "per_page": 2,
      "current_page": 1,
      "total_pages": 2,
      "links": {
        "previous": "string",
        "current": "string",
        "next": "string"
      }
    }
  }
}
