{
  "data": [
    {
      "id": 3,
      "channel_id": 1,
      "name": "Another new page title",
      "is_visible": true,
      "parent_id": 0,
      "sort_order": 4,
      "type": "blog",
      "is_homepage": false,
      "is_customers_only": false,
      "url": "\/blog\/"
    },
    {
      "id": 5,
      "channel_id": 1,
      "name": "An Example Page Title",
      "meta_title": "",
      "is_visible": false,
      "parent_id": 0,
      "sort_order": 0,
      "meta_keywords": null,
      "type": "page",
      "meta_description": "",
      "is_homepage": false,
      "is_customers_only": false,
      "search_keywords": ""
    },
    {
      "id": 6,
      "channel_id": 1,
      "name": "One More Page Title",
      "meta_title": "",
      "is_visible": false,
      "parent_id": 0,
      "sort_order": 0,
      "meta_keywords": null,
      "type": "page",
      "meta_description": "",
      "is_homepage": false,
      "is_customers_only": false,
      "search_keywords": ""
    },
    {
      "id": 7,
      "channel_id": 1,
      "name": "And Then Another Page Title",
      "meta_title": "",
      "is_visible": false,
      "parent_id": 0,
      "sort_order": 0,
      "meta_keywords": null,
      "type": "page",
      "meta_description": "",
      "is_homepage": false,
      "is_customers_only": false,
      "search_keywords": ""
    },
    {
      "id": 8,
      "channel_id": 1,
      "name": "An Example Page Title fd52faa4-8a8a-4f85-8459-89bffb7f1105",
      "meta_title": "",
      "is_visible": false,
      "parent_id": 0,
      "sort_order": 0,
      "meta_keywords": null,
      "type": "page",
      "meta_description": "",
      "is_homepage": false,
      "is_customers_only": false,
      "search_keywords": ""
    },
    {
      "id": 9,
      "channel_id": 1,
      "name": "One More Page Title b659908f-a19a-4c17-9c35-d5f11365c68d",
      "meta_title": "",
      "is_visible": false,
      "parent_id": 0,
      "sort_order": 0,
      "meta_keywords": null,
      "type": "page",
      "meta_description": "",
      "is_homepage": false,
      "is_customers_only": false,
      "search_keywords": ""
    },
    {
      "id": 10,
      "channel_id": 1,
      "name": "And Then Another Page Title 378a1428-b2b0-420f-813d-1a430f67e7f5",
      "meta_title": "",
      "is_visible": false,
      "parent_id": 0,
      "sort_order": 0,
      "meta_keywords": null,
      "type": "page",
      "meta_description": "",
      "is_homepage": false,
      "is_customers_only": false,
      "search_keywords": ""
    },
    {
      "id": 11,
      "channel_id": 1,
      "name": "An Example Page Title (That's been edited!)",
      "meta_title": "",
      "is_visible": false,
      "parent_id": 0,
      "sort_order": 0,
      "meta_keywords": null,
      "type": "page",
      "meta_description": "",
      "is_homepage": false,
      "is_customers_only": false,
      "search_keywords": ""
    },
    {
      "id": 12,
      "channel_id": 1,
      "name": "One More Page Title 929dd8fd-191d-4c8b-9e09-238caf1b37d7",
      "meta_title": "",
      "is_visible": false,
      "parent_id": 0,
      "sort_order": 0,
      "meta_keywords": null,
      "type": "page",
      "meta_description": "",
      "is_homepage": false,
      "is_customers_only": false,
      "search_keywords": ""
    },
    {
      "id": 13,
      "channel_id": 1,
      "name": "And Then Another Page Title e170c2e7-9454-4ba1-a87f-3fb6b7bc0c50",
      "meta_title": "",
      "is_visible": false,
      "parent_id": 0,
      "sort_order": 0,
      "meta_keywords": null,
      "type": "page",
      "meta_description": "",
      "is_homepage": false,
      "is_customers_only": false,
      "search_keywords": ""
    },
    {
      "id": 14,
      "channel_id": 1,
      "name": "An Example Page Title 1f468177-0451-4a91-9b03-aa6b8280c957",
      "meta_title": "",
      "is_visible": false,
      "parent_id": 0,
      "sort_order": 0,
      "meta_keywords": null,
      "type": "page",
      "meta_description": "",
      "is_homepage": false,
      "is_customers_only": false,
      "search_keywords": ""
    },
    {
      "id": 15,
      "channel_id": 1,
      "name": "One More Page Title f201e794-695a-47c5-8ba3-6f22dbb2b492",
      "meta_title": "",
      "is_visible": false,
      "parent_id": 0,
      "sort_order": 0,
      "meta_keywords": null,
      "type": "page",
      "meta_description": "",
      "is_homepage": false,
      "is_customers_only": false,
      "search_keywords": ""
    },
    {
      "id": 16,
      "channel_id": 1,
      "name": "And Then Another Page Title 9a82e0af-0077-4c5b-a1c9-f6772b74a0c6",
      "meta_title": "",
      "is_visible": false,
      "parent_id": 0,
      "sort_order": 0,
      "meta_keywords": null,
      "type": "page",
      "meta_description": "",
      "is_homepage": false,
      "is_customers_only": false,
      "search_keywords": ""
    },
    {
      "id": 17,
      "channel_id": 1,
      "name": "An Example Page Title (That's been edited!) 9b57de16-1986-43c0-a84a-88a2b21c550a",
      "meta_title": "",
      "is_visible": false,
      "parent_id": 0,
      "sort_order": 0,
      "meta_keywords": null,
      "type": "page",
      "meta_description": "",
      "is_homepage": false,
      "is_customers_only": false,
      "search_keywords": ""
    },
    {
      "id": 18,
      "channel_id": 1,
      "name": "One More Page Title 825f12b8-0fe7-4d36-9b52-0c4766c01c1c",
      "meta_title": "",
      "is_visible": false,
      "parent_id": 0,
      "sort_order": 0,
      "meta_keywords": null,
      "type": "page",
      "meta_description": "",
      "is_homepage": false,
      "is_customers_only": false,
      "search_keywords": ""
    },
    {
      "id": 19,
      "channel_id": 1,
      "name": "And Then Another Page Title e9977a87-0a08-4e7e-a74c-452fe0c12d51",
      "meta_title": "",
      "is_visible": false,
      "parent_id": 0,
      "sort_order": 0,
      "meta_keywords": null,
      "type": "page",
      "meta_description": "",
      "is_homepage": false,
      "is_customers_only": false,
      "search_keywords": ""
    },
    {
      "id": 20,
      "channel_id": 1,
      "name": "An Example Page Title (That's been edited!) 1d233a4f-4fa2-4f95-9ddc-ec8c365f576b",
      "meta_title": "",
      "is_visible": false,
      "parent_id": 0,
      "sort_order": 0,
      "meta_keywords": null,
      "type": "page",
      "meta_description": "",
      "is_homepage": false,
      "is_customers_only": false,
      "search_keywords": ""
    },
    {
      "id": 21,
      "channel_id": 1,
      "name": "One More Page Title 2339e28e-d4ed-424d-b095-0827d80ae7a6",
      "meta_title": "",
      "is_visible": false,
      "parent_id": 0,
      "sort_order": 0,
      "meta_keywords": null,
      "type": "page",
      "meta_description": "",
      "is_homepage": false,
      "is_customers_only": false,
      "search_keywords": ""
    },
    {
      "id": 22,
      "channel_id": 1,
      "name": "And Then Another Page Title 4b1ebf0c-3b93-4f53-9cab-ef0a942157a1",
      "meta_title": "",
      "is_visible": false,
      "parent_id": 0,
      "sort_order": 0,
      "meta_keywords": null,
      "type": "page",
      "meta_description": "",
      "is_homepage": false,
      "is_customers_only": false,
      "search_keywords": ""
    },
    {
      "id": 23,
      "channel_id": 1,
      "name": "An Example Page Title (That's been edited!) a12b0190-a2f7-4b1a-9805-0ac0618c9469",
      "meta_title": "",
      "is_visible": false,
      "parent_id": 0,
      "sort_order": 0,
      "meta_keywords": null,
      "type": "page",
      "meta_description": "",
      "is_homepage": false,
      "is_customers_only": false,
      "search_keywords": ""
    },
    {
      "id": 24,
      "channel_id": 1,
      "name": "One More Page Title 376c3745-2384-4d0a-932f-e353dd67b4da",
      "meta_title": "",
      "is_visible": false,
      "parent_id": 0,
      "sort_order": 0,
      "meta_keywords": null,
      "type": "page",
      "meta_description": "",
      "is_homepage": false,
      "is_customers_only": false,
      "search_keywords": ""
    },
    {
      "id": 25,
      "channel_id": 1,
      "name": "And Then Another Page Title 8a24279d-9ed6-4f44-a798-b0b029c531e6",
      "meta_title": "",
      "is_visible": false,
      "parent_id": 0,
      "sort_order": 0,
      "meta_keywords": null,
      "type": "page",
      "meta_description": "",
      "is_homepage": false,
      "is_customers_only": false,
      "search_keywords": ""
    },
    {
      "id": 26,
      "channel_id": 1,
      "name": "An Example Page Title (That's been edited!) e34d06d4-285e-4b22-9e8a-f9799ef5f92a",
      "meta_title": "",
      "is_visible": false,
      "parent_id": 0,
      "sort_order": 0,
      "meta_keywords": null,
      "type": "page",
      "meta_description": "",
      "is_homepage": false,
      "is_customers_only": false,
      "search_keywords": ""
    },
    {
      "id": 27,
      "channel_id": 1,
      "name": "One More Page Title 0cf364e2-da9b-431b-9beb-e8ae46eba9cd",
      "meta_title": "",
      "is_visible": false,
      "parent_id": 0,
      "sort_order": 0,
      "meta_keywords": null,
      "type": "page",
      "meta_description": "",
      "is_homepage": false,
      "is_customers_only": false,
      "search_keywords": ""
    },
    {
      "id": 28,
      "channel_id": 1,
      "name": "And Then Another Page Title a261cf26-0d40-4521-a69b-672b24e5915d",
      "meta_title": "",
      "is_visible": false,
      "parent_id": 0,
      "sort_order": 0,
      "meta_keywords": null,
      "type": "page",
      "meta_description": "",
      "is_homepage": false,
      "is_customers_only": false,
      "search_keywords": ""
    },
    {
      "id": 29,
      "channel_id": 1,
      "name": "An Example Page Title (That's been edited!) 13b9b09d-b729-4513-bb2e-0234870071a9",
      "meta_title": "",
      "is_visible": false,
      "parent_id": 0,
      "sort_order": 0,
      "meta_keywords": null,
      "type": "page",
      "meta_description": "",
      "is_homepage": false,
      "is_customers_only": false,
      "search_keywords": ""
    },
    {
      "id": 30,
      "channel_id": 1,
      "name": "One More Page Title fedd4641-89f7-4702-b91f-9e726acdd54f",
      "meta_title": "",
      "is_visible": false,
      "parent_id": 0,
      "sort_order": 0,
      "meta_keywords": null,
      "type": "page",
      "meta_description": "",
      "is_homepage": false,
      "is_customers_only": false,
      "search_keywords": ""
    },
    {
      "id": 31,
      "channel_id": 1,
      "name": "And Then Another Page Title 91e31800-ab4b-4b6d-bfa3-7abc5684275a",
      "meta_title": "",
      "is_visible": false,
      "parent_id": 0,
      "sort_order": 0,
      "meta_keywords": null,
      "type": "page",
      "meta_description": "",
      "is_homepage": false,
      "is_customers_only": false,
      "search_keywords": ""
    },
    {
      "id": 32,
      "channel_id": 1,
      "name": "An Example Page Title (That's been edited!) 1c49a183-5018-4064-ae63-c5484290861c",
      "meta_title": "",
      "is_visible": false,
      "parent_id": 0,
      "sort_order": 0,
      "meta_keywords": null,
      "type": "page",
      "meta_description": "",
      "is_homepage": false,
      "is_customers_only": false,
      "search_keywords": ""
    },
    {
      "id": 33,
      "channel_id": 1,
      "name": "One More Page Title 9a1fb051-e981-472f-ac21-0759aed0627d",
      "meta_title": "",
      "is_visible": false,
      "parent_id": 0,
      "sort_order": 0,
      "meta_keywords": null,
      "type": "page",
      "meta_description": "",
      "is_homepage": false,
      "is_customers_only": false,
      "search_keywords": ""
    },
    {
      "id": 34,
      "channel_id": 1,
      "name": "And Then Another Page Title e718ee7a-ca05-411c-a707-059b6345ba25",
      "meta_title": "",
      "is_visible": false,
      "parent_id": 0,
      "sort_order": 0,
      "meta_keywords": null,
      "type": "page",
      "meta_description": "",
      "is_homepage": false,
      "is_customers_only": false,
      "search_keywords": ""
    },
    {
      "id": 35,
      "channel_id": 1,
      "name": "An Example Page Title (That's been edited!) f7e935de-a28c-4795-b7cc-1804963a30e7",
      "meta_title": "",
      "is_visible": false,
      "parent_id": 0,
      "sort_order": 0,
      "meta_keywords": null,
      "type": "page",
      "meta_description": "",
      "is_homepage": false,
      "is_customers_only": false,
      "search_keywords": ""
    },
    {
      "id": 36,
      "channel_id": 1,
      "name": "One More Page Title 37b5aec1-e675-433b-9555-01ca789593e3",
      "meta_title": "",
      "is_visible": false,
      "parent_id": 0,
      "sort_order": 0,
      "meta_keywords": null,
      "type": "page",
      "meta_description": "",
      "is_homepage": false,
      "is_customers_only": false,
      "search_keywords": ""
    },
    {
      "id": 37,
      "channel_id": 1,
      "name": "And Then Another Page Title 80d6cd83-8c56-491d-bcb9-527a34b495b1",
      "meta_title": "",
      "is_visible": false,
      "parent_id": 0,
      "sort_order": 0,
      "meta_keywords": null,
      "type": "page",
      "meta_description": "",
      "is_homepage": false,
      "is_customers_only": false,
      "search_keywords": ""
    },
    {
      "id": 38,
      "channel_id": 1,
      "name": "An Example Page Title (That's been edited!) eca503f6-0633-49cc-8a4e-ff6eb30f3110",
      "meta_title": "",
      "is_visible": false,
      "parent_id": 0,
      "sort_order": 0,
      "meta_keywords": null,
      "type": "page",
      "meta_description": "",
      "is_homepage": false,
      "is_customers_only": false,
      "search_keywords": ""
    },
    {
      "id": 39,
      "channel_id": 1,
      "name": "One More Page Title a0181f9a-cc28-4d23-92b8-f870b4f06bc5",
      "meta_title": "",
      "is_visible": false,
      "parent_id": 0,
      "sort_order": 0,
      "meta_keywords": null,
      "type": "page",
      "meta_description": "",
      "is_homepage": false,
      "is_customers_only": false,
      "search_keywords": ""
    },
    {
      "id": 40,
      "channel_id": 1,
      "name": "And Then Another Page Title e60100e9-95c5-4312-8b9d-71fdfc574a60",
      "meta_title": "",
      "is_visible": false,
      "parent_id": 0,
      "sort_order": 0,
      "meta_keywords": null,
      "type": "page",
      "meta_description": "",
      "is_homepage": false,
      "is_customers_only": false,
      "search_keywords": ""
    },
    {
      "id": 41,
      "channel_id": 1,
      "name": "An Example Page Title (That's been edited!) d2132f25-a7ca-45b2-9dd2-26e8aaf90abe",
      "meta_title": "",
      "is_visible": false,
      "parent_id": 0,
      "sort_order": 0,
      "meta_keywords": null,
      "type": "page",
      "meta_description": "",
      "is_homepage": false,
      "is_customers_only": false,
      "search_keywords": ""
    },
    {
      "id": 42,
      "channel_id": 1,
      "name": "One More Page Title 88a0f5bd-5b95-4c5b-9fae-a81c602463f8",
      "meta_title": "",
      "is_visible": false,
      "parent_id": 0,
      "sort_order": 0,
      "meta_keywords": null,
      "type": "page",
      "meta_description": "",
      "is_homepage": false,
      "is_customers_only": false,
      "search_keywords": ""
    },
    {
      "id": 43,
      "channel_id": 1,
      "name": "And Then Another Page Title 4c7fefab-2b23-4339-a6c6-115bf2dbb57f",
      "meta_title": "",
      "is_visible": false,
      "parent_id": 0,
      "sort_order": 0,
      "meta_keywords": null,
      "type": "page",
      "meta_description": "",
      "is_homepage": false,
      "is_customers_only": false,
      "search_keywords": ""
    },
    {
      "id": 44,
      "channel_id": 1,
      "name": "An Example Page Title (That's been edited!) aa62b932-eca6-46b1-99a2-e06377d6e9dd",
      "meta_title": "",
      "is_visible": false,
      "parent_id": 0,
      "sort_order": 0,
      "meta_keywords": null,
      "type": "page",
      "meta_description": "",
      "is_homepage": false,
      "is_customers_only": false,
      "search_keywords": ""
    },
    {
      "id": 45,
      "channel_id": 1,
      "name": "One More Page Title 2e7b2f4d-a6c4-4809-8759-8605ee029ed7",
      "meta_title": "",
      "is_visible": false,
      "parent_id": 0,
      "sort_order": 0,
      "meta_keywords": null,
      "type": "page",
      "meta_description": "",
      "is_homepage": false,
      "is_customers_only": false,
      "search_keywords": ""
    },
    {
      "id": 46,
      "channel_id": 1,
      "name": "And Then Another Page Title 262c9123-e823-47cf-91fd-cbe4d6b05bc6",
      "meta_title": "",
      "is_visible": false,
      "parent_id": 0,
      "sort_order": 0,
      "meta_keywords": null,
      "type": "page",
      "meta_description": "",
      "is_homepage": false,
      "is_customers_only": false,
      "search_keywords": ""
    },
    {
      "id": 47,
      "channel_id": 1,
      "name": "An Example Page Title (That's been edited!) 7ffa6e28-7c8c-403f-bced-9d47c9cd7693",
      "meta_title": "",
      "is_visible": false,
      "parent_id": 0,
      "sort_order": 0,
      "meta_keywords": null,
      "type": "page",
      "meta_description": "",
      "is_homepage": false,
      "is_customers_only": false,
      "search_keywords": ""
    },
    {
      "id": 48,
      "channel_id": 1,
      "name": "One More Page Title c93334af-3a03-48cb-9d67-5574f22c0da3",
      "meta_title": "",
      "is_visible": false,
      "parent_id": 0,
      "sort_order": 0,
      "meta_keywords": null,
      "type": "page",
      "meta_description": "",
      "is_homepage": false,
      "is_customers_only": false,
      "search_keywords": ""
    },
    {
      "id": 49,
      "channel_id": 1,
      "name": "And Then Another Page Title 6ce497d6-4ed7-474d-b808-83989d7ed6aa",
      "meta_title": "",
      "is_visible": false,
      "parent_id": 0,
      "sort_order": 0,
      "meta_keywords": null,
      "type": "page",
      "meta_description": "",
      "is_homepage": false,
      "is_customers_only": false,
      "search_keywords": ""
    },
    {
      "id": 50,
      "channel_id": 1,
      "name": "An Example Page Title (That's been edited!) 86474ade-197f-460e-b18a-5a9a3c83a189",
      "meta_title": "",
      "is_visible": false,
      "parent_id": 0,
      "sort_order": 0,
      "meta_keywords": null,
      "type": "page",
      "meta_description": "",
      "is_homepage": false,
      "is_customers_only": false,
      "search_keywords": ""
    },
    {
      "id": 51,
      "channel_id": 1,
      "name": "One More Page Title 2a692932-3c13-423d-a311-ce90b84b64d7",
      "meta_title": "",
      "is_visible": false,
      "parent_id": 0,
      "sort_order": 0,
      "meta_keywords": null,
      "type": "page",
      "meta_description": "",
      "is_homepage": false,
      "is_customers_only": false,
      "search_keywords": ""
    },
    {
      "id": 52,
      "channel_id": 1,
      "name": "And Then Another Page Title 4c347992-ff97-421f-b392-1718b567fce1",
      "meta_title": "",
      "is_visible": false,
      "parent_id": 0,
      "sort_order": 0,
      "meta_keywords": null,
      "type": "page",
      "meta_description": "",
      "is_homepage": false,
      "is_customers_only": false,
      "search_keywords": ""
    },
    {
      "id": 53,
      "channel_id": 1,
      "name": "An Example Page Title (That's been edited!) f08c9c90-25f2-4a7c-a614-799784b2a7a2",
      "meta_title": "",
      "is_visible": false,
      "parent_id": 0,
      "sort_order": 0,
      "meta_keywords": null,
      "type": "page",
      "meta_description": "",
      "is_homepage": false,
      "is_customers_only": false,
      "search_keywords": ""
    }
  ],
  "meta": {
    "pagination": {
      "total": 208,
      "count": 208,
      "per_page": 50,
      "current_page": 1,
      "total_pages": 5,
      "links": {
        "next": "?channel_id=1&limit=50&page=2",
        "current": "?channel_id=1&limit=50&page=1"
      }
    }
  }
}
